@startuml

title __RENDERER's Class Diagram__\n

  namespace fr.cnam.foad.nfa035.badges.gui {
    namespace controller {
      namespace renderer {
        class fr.cnam.foad.nfa035.badges.gui.controller.renderer.BadgeSizeCellRenderer {
            ~ originBackground : Color
            ~ originForeground : Color
            + BadgeSizeCellRenderer()
            + getTableCellRendererComponent()
            - humanReadableByteCountBin()
        }
      }
    }
  }
  

  namespace fr.cnam.foad.nfa035.badges.gui {
    namespace controller {
      namespace renderer {
        class fr.cnam.foad.nfa035.badges.gui.controller.renderer.DefaultBadgeCellRenderer {
            ~ originForeground : Color
            + DefaultBadgeCellRenderer()
            + getTableCellRendererComponent()
        }
      }
    }
  }
  

  fr.cnam.foad.nfa035.badges.gui.controller.renderer.BadgeSizeCellRenderer -up-|> javax.swing.table.DefaultTableCellRenderer
  fr.cnam.foad.nfa035.badges.gui.controller.renderer.DefaultBadgeCellRenderer -up-|> javax.swing.table.DefaultTableCellRenderer


right footer


PlantUML diagram generated by SketchIt! (https://bitbucket.org/pmesmeur/sketch.it)
For more information about this tool, please contact philippe.mesmeur@gmail.com
endfooter

@enduml
